{
  "name": "bkraft-nelk",
  "version": "0.1.0",
  "author": "bkraft",
  "summary": "Deploy Nginx, elasticsearch, logstash and kibana on centos6",
  "license": "Apache 2.0",
  "source": "https://bitbucket.org/legeek/nelk",
  "issues_url": null,
  "project_page": "http://bkraft.fr",
  "dependencies": [
    {"version_requirement":">= 1.0.0","name":"puppetlabs-stdlib"}
  ]
}

